4_vending_machine/sim/tb_fsm_controller.vcd
$date
	Wed Feb 25 17:53:14 2026
$end
$version
	Icarus Verilog
$end
$timescale
	1ps
$end
$scope module tb_fsm_controller $end
$var wire 4 ! item_leds [3:0] $end
$var wire 4 " digit3 [3:0] $end
$var wire 4 # digit2 [3:0] $end
$var wire 4 $ digit1 [3:0] $end
$var wire 4 % digit0 [3:0] $end
$var reg 1 & btn_confirm $end
$var reg 1 ' btn_dime $end
$var reg 1 ( btn_nickel $end
$var reg 1 ) btn_quarter $end
$var reg 1 * clk $end
$var reg 1 + en_1hz $end
$var reg 1 , rst $end
$var reg 2 - sw_item [1:0] $end
$var reg 1 . sw_restock $end
$var integer 32 / fail_count [31:0] $end
$var integer 32 0 pass_count [31:0] $end
$var integer 32 1 test_num [31:0] $end
$scope module uut $end
$var wire 1 & btn_confirm $end
$var wire 1 ' btn_dime $end
$var wire 1 ( btn_nickel $end
$var wire 1 ) btn_quarter $end
$var wire 1 * clk $end
$var wire 1 + en_1hz $end
$var wire 1 , rst $end
$var wire 2 2 sw_item [1:0] $end
$var wire 1 . sw_restock $end
$var wire 8 3 bcd_stock [7:0] $end
$var wire 8 4 bcd_price [7:0] $end
$var wire 8 5 bcd_change [7:0] $end
$var wire 8 6 bcd_balance [7:0] $end
$var parameter 3 7 S_DISPENSE $end
$var parameter 3 8 S_IDLE $end
$var parameter 3 9 S_INSERT $end
$var parameter 3 : S_SHOW_CHG $end
$var parameter 3 ; S_SHOW_PRICE $end
$var parameter 3 < S_SOLD_OUT $end
$var reg 7 = balance [6:0] $end
$var reg 7 > change [6:0] $end
$var reg 3 ? cur_stock [2:0] $end
$var reg 4 @ digit0 [3:0] $end
$var reg 4 A digit1 [3:0] $end
$var reg 4 B digit2 [3:0] $end
$var reg 4 C digit3 [3:0] $end
$var reg 4 D item_leds [3:0] $end
$var reg 3 E next_state [2:0] $end
$var reg 7 F price [6:0] $end
$var reg 2 G sel_item [1:0] $end
$var reg 3 H sel_stock [2:0] $end
$var reg 3 I state [2:0] $end
$var reg 3 J stock_0 [2:0] $end
$var reg 3 K stock_1 [2:0] $end
$var reg 3 L stock_2 [2:0] $end
$var reg 3 M stock_3 [2:0] $end
$var reg 3 N timer [2:0] $end
$scope function get_price $end
$var reg 2 O item [1:0] $end
$upscope $end
$scope function to_bcd $end
$var reg 7 P val [6:0] $end
$upscope $end
$upscope $end
$scope task check_balance $end
$var reg 7 Q expected [6:0] $end
$var reg 256 R name [255:0] $end
$upscope $end
$scope task check_change $end
$var reg 7 S expected [6:0] $end
$var reg 256 T name [255:0] $end
$upscope $end
$scope task check_display $end
$var reg 4 U e0 [3:0] $end
$var reg 4 V e1 [3:0] $end
$var reg 4 W e2 [3:0] $end
$var reg 4 X e3 [3:0] $end
$var reg 256 Y name [255:0] $end
$upscope $end
$scope task check_leds $end
$var reg 4 Z expected [3:0] $end
$var reg 256 [ name [255:0] $end
$upscope $end
$scope task check_state $end
$var reg 256 \ name [255:0] $end
$var integer 32 ] expected [31:0] $end
$upscope $end
$scope task check_stock $end
$var reg 3 ^ actual [2:0] $end
$var reg 3 _ expected [2:0] $end
$var reg 2 ` item [1:0] $end
$var reg 256 a name [255:0] $end
$upscope $end
$scope task do_reset $end
$upscope $end
$scope task insert_cents $end
$var reg 7 b amount [6:0] $end
$var reg 7 c remaining [6:0] $end
$upscope $end
$scope task press_button $end
$var integer 32 d which [31:0] $end
$upscope $end
$scope task start_purchase $end
$var reg 2 e item [1:0] $end
$upscope $end
$scope task tick_1hz $end
$upscope $end
$scope task wait_clk $end
$upscope $end
$scope task wait_dispense $end
$upscope $end
$scope task wait_show_change $end
$upscope $end
$scope task wait_show_price $end
$upscope $end
$scope task wait_sold_out $end
$upscope $end
$upscope $end
$enddefinitions $end
$comment Show the parameter values. $end
$dumpall
b1 <
b10 ;
b101 :
b11 9
b0 8
b100 7
$end
#0
$dumpvars
bx e
bx d
bx c
bx b
bx a
bx `
bx _
bx ^
bx ]
bx \
bx [
bx Z
bx Y
bx X
bx W
bx V
bx U
bx T
bx S
bx R
bx Q
bx P
bx O
bx N
bx M
bx L
bx K
bx J
bx I
bx H
bx G
bx F
b0 E
bx D
b1111 C
b1111 B
b1111 A
b1111 @
bx ?
bx >
bx =
bx 6
bx 5
bx 4
bx 3
b0 2
b0 1
b0 0
b0 /
0.
b0 -
0,
0+
0*
0)
0(
0'
0&
b1111 %
b1111 $
b1111 #
b1111 "
bx !
$end
#5000
b0 %
b0 @
b0 $
b0 A
b0 #
b0 B
b0 "
b0 C
b0 I
1*
#6000
1,
#10000
0*
#15000
b101 3
b101 ?
b0 5
b101 H
b0 4
b0 6
b101 P
b101 M
b101 L
b101 K
b101 J
b0 !
b0 D
b0 N
b0 >
b0 G
b0 F
b0 =
1*
#20000
0*
#25000
1*
#26000
0,
#30000
0*
#35000
1*
#36000
b0 d
b0 e
b1 1
#40000
0*
#45000
1*
#46000
b10 E
1&
#50000
0*
#55000
b101 %
b101 @
b10 $
b10 A
b100101 4
b11001 P
b1111 #
b1111 B
b1111 "
b1111 C
b1 N
b11001 F
b10 I
b0 O
1*
#56000
0&
#60000
0*
#65000
1*
#70000
0*
#75000
1*
#76000
1+
#80000
0*
#85000
b11 E
b0 N
1*
#86000
0+
#90000
0*
#95000
b0 %
b0 @
b0 $
b0 A
b11 I
1*
#96000
b11 d
b1 0
b11 ]
b10010010110111000100000010010010100111001010011010001010101001001010100010111110100001101001111010010010100111001010011 \
#100000
0*
#105000
1*
#106000
1)
#110000
0*
#115000
b101 %
b101 @
b10 $
b10 A
b100 E
b100101 6
b11001 =
1*
#116000
0)
#120000
0*
#125000
b100 3
b100 P
b1110 %
b1110 @
b1110 $
b1110 A
b1110 #
b1110 B
b1110 "
b1110 C
b100 H
b100 ?
b100 I
b100 J
b10 N
1*
#130000
0*
#135000
b1 !
b1 D
1*
#136000
b1 Z
b100110001000101010001000010000001000001001000000110111101101110 [
b11 0
b100 ]
b100010001001001010100110101000001000101010011100101001101000101 \
#140000
0*
#145000
1*
#146000
1+
#150000
0*
#155000
b1 N
1*
#156000
0+
#160000
0*
#165000
1*
#166000
1+
#170000
0*
#175000
b0 E
b0 N
1*
#176000
0+
#180000
0*
#185000
b0 %
b0 @
b0 $
b0 A
b0 #
b0 B
b0 "
b0 C
b0 I
1*
#190000
0*
#195000
b0 6
b0 P
b0 !
b0 D
b0 =
1*
#196000
b101 3
b101 P
b101 ?
b0 d
b1 -
b1 2
b1 e
b10 1
b0 Z
b100110001000101010001000111001100100000011011110110011001100110 [
b100 ^
b100 _
b0 `
b10100110111010001101111011000110110101100100000010000010011110100110100 a
b110 0
b0 ]
b10000100110000101100011011010110010000001110100011011110010000001001001010001000100110001000101 \
#200000
0*
#205000
1*
#206000
b10 E
1&
#210000
0*
#215000
b1010000 4
b110010 P
b101 H
b0 %
b0 @
b101 $
b101 A
b1111 #
b1111 B
b1111 "
b1111 C
b1 N
b110010 F
b1 G
b10 I
b1 O
1*
#216000
0&
#220000
0*
#225000
1*
#230000
0*
#235000
1*
#236000
1+
#240000
0*
#245000
b11 E
b0 N
1*
#246000
0+
#250000
0*
#255000
b0 $
b0 A
b11 I
1*
#256000
b11 d
#260000
0*
#265000
1*
#266000
1)
#270000
0*
#275000
b101 %
b101 @
b10 $
b10 A
b100101 6
b11001 P
b11001 =
1*
#276000
0)
#280000
0*
#285000
1*
#290000
0*
#295000
1*
#296000
1)
#300000
0*
#305000
b0 %
b0 @
b101 $
b101 A
b100 E
b1010000 6
b110010 P
b110010 =
1*
#306000
0)
#310000
0*
#315000
b100 3
b100 P
b100 H
b100 ?
b1110 %
b1110 @
b1110 $
b1110 A
b1110 #
b1110 B
b1110 "
b1110 C
b100 K
b10 N
b100 I
1*
#320000
0*
#325000
b10 !
b10 D
1*
#326000
b10 Z
b100110001000101010001000010000001000010001000000110111101101110 [
b1000 0
b100 ]
b100010001001001010100110101000001000101010011100101001101000101 \
#330000
0*
#335000
1*
#336000
1+
#340000
0*
#345000
b1 N
1*
#346000
0+
#350000
0*
#355000
1*
#356000
1+
#360000
0*
#365000
b0 E
b0 N
1*
#366000
0+
#370000
0*
#375000
b0 %
b0 @
b0 $
b0 A
b0 #
b0 B
b0 "
b0 C
b0 I
1*
#380000
0*
#385000
b0 6
b0 P
b0 !
b0 D
b0 =
1*
#386000
b101 3
b101 P
b101 ?
b0 d
b10 -
b10 2
b10 e
b11 1
b1 `
b10100110111010001101111011000110110101100100000010000100011110100110100 a
b1010 0
b0 ]
b10000100110000101100011011010110010000001110100011011110010000001001001010001000100110001000101 \
#390000
0*
#395000
1*
#396000
b10 E
1&
#400000
0*
#405000
b101 %
b101 @
b111 $
b111 A
b1111 #
b1111 B
b1111 "
b1111 C
b1110101 4
b1001011 P
b101 H
b10 I
b1 N
b1001011 F
b10 G
b10 O
1*
#406000
0&
#410000
0*
#415000
1*
#420000
0*
#425000
1*
#426000
1+
#430000
0*
#435000
b11 E
b0 N
1*
#436000
0+
#440000
0*
#445000
b0 %
b0 @
b0 $
b0 A
b11 I
1*
#446000
b11 d
#450000
0*
#455000
1*
#456000
1)
#460000
0*
#465000
b101 %
b101 @
b10 $
b10 A
b100101 6
b11001 P
b11001 =
1*
#466000
0)
#470000
0*
#475000
1*
#480000
0*
#485000
1*
#486000
1)
#490000
0*
#495000
b0 %
b0 @
b101 $
b101 A
b1010000 6
b110010 P
b110010 =
1*
#496000
0)
#500000
0*
#505000
1*
#510000
0*
#515000
1*
#516000
1)
#520000
0*
#525000
b101 %
b101 @
b111 $
b111 A
b100 E
b1110101 6
b1001011 P
b1001011 =
1*
#526000
0)
#530000
0*
#535000
b100 3
b100 P
b100 H
b100 ?
b1110 %
b1110 @
b1110 $
b1110 A
b1110 #
b1110 B
b1110 "
b1110 C
b100 L
b10 N
b100 I
1*
#540000
0*
#545000
b100 !
b100 D
1*
#546000
b100 Z
b100110001000101010001000010000001000011001000000110111101101110 [
b1100 0
b100 ]
b100010001001001010100110101000001000101010011100101001101000101 \
#550000
0*
#555000
1*
#556000
1+
#560000
0*
#565000
b1 N
1*
#566000
0+
#570000
0*
#575000
1*
#576000
1+
#580000
0*
#585000
b0 E
b0 N
1*
#586000
0+
#590000
0*
#595000
b0 %
b0 @
b0 $
b0 A
b0 #
b0 B
b0 "
b0 C
b0 I
1*
#600000
0*
#605000
b0 6
b0 P
b0 !
b0 D
b0 =
1*
#606000
b101 3
b101 P
b101 ?
b0 d
b11 -
b11 2
b11 e
b100 1
b10 `
b10100110111010001101111011000110110101100100000010000110011110100110100 a
b1110 0
b0 ]
b10000100110000101100011011010110010000001110100011011110010000001001001010001000100110001000101 \
#610000
0*
#615000
1*
#616000
b10 E
1&
#620000
0*
#625000
b101 %
b101 @
b1001 $
b1001 A
b1111 #
b1111 B
b1111 "
b1111 C
b10010101 4
b1011111 P
b101 H
b10 I
b1 N
b1011111 F
b11 G
b11 O
1*
#626000
0&
#630000
0*
#635000
1*
#640000
0*
#645000
1*
#646000
1+
#650000
0*
#655000
b11 E
b0 N
1*
#656000
0+
#660000
0*
#665000
b0 %
b0 @
b0 $
b0 A
b11 I
1*
#666000
b11 d
#670000
0*
#675000
1*
#676000
1)
#680000
0*
#685000
b101 %
b101 @
b10 $
b10 A
b100101 6
b11001 P
b11001 =
1*
#686000
0)
#690000
0*
#695000
1*
#700000
0*
#705000
1*
#706000
1)
#710000
0*
#715000
b0 %
b0 @
b101 $
b101 A
b1010000 6
b110010 P
b110010 =
1*
#716000
0)
#720000
0*
#725000
1*
#730000
0*
#735000
1*
#736000
1)
#740000
0*
#745000
b101 %
b101 @
b111 $
b111 A
b1110101 6
b1001011 P
b1001011 =
1*
#746000
0)
#750000
0*
#755000
1*
#756000
b10 d
#760000
0*
#765000
1*
#766000
1'
#770000
0*
#775000
b1000 $
b1000 A
b10000101 6
b1010101 P
b1010101 =
1*
#776000
0'
#780000
0*
#785000
1*
#790000
0*
#795000
1*
#796000
1'
#800000
0*
#805000
b1001 $
b1001 A
b100 E
b10010101 6
b1011111 P
b1011111 =
1*
#806000
0'
#810000
0*
#815000
b100 3
b100 P
b100 H
b100 ?
b1110 %
b1110 @
b1110 $
b1110 A
b1110 #
b1110 B
b1110 "
b1110 C
b100 M
b10 N
b100 I
1*
#820000
0*
#825000
b1000 !
b1000 D
1*
#826000
b1000 Z
b100110001000101010001000010000001000100001000000110111101101110 [
b10000 0
b100 ]
b100010001001001010100110101000001000101010011100101001101000101 \
#830000
0*
#835000
1*
#836000
1+
#840000
0*
#845000
b1 N
1*
#846000
0+
#850000
0*
#855000
1*
#856000
1+
#860000
0*
#865000
b0 E
b0 N
1*
#866000
0+
#870000
0*
#875000
b0 %
b0 @
b0 $
b0 A
b0 #
b0 B
b0 "
b0 C
b0 I
1*
#880000
0*
#885000
b0 6
b0 P
b0 !
b0 D
b0 =
1*
#886000
b0 d
b0 -
b0 2
b0 e
b101 1
b11 `
b10100110111010001101111011000110110101100100000010001000011110100110100 a
b10010 0
b0 ]
b10000100110000101100011011010110010000001110100011011110010000001001001010001000100110001000101 \
#890000
0*
#895000
1*
#896000
b10 E
1&
#900000
0*
#905000
b101 %
b101 @
b10 $
b10 A
b1111 #
b1111 B
b1111 "
b1111 C
b100101 4
b11001 P
b10 I
b1 N
b11001 F
b0 G
b0 O
1*
#906000
0&
#910000
0*
#915000
1*
#920000
0*
#925000
1*
#926000
1+
#930000
0*
#935000
b11 E
b0 N
1*
#936000
0+
#940000
0*
#945000
b0 %
b0 @
b0 $
b0 A
b11 I
1*
#946000
b1 d
#950000
0*
#955000
1*
#956000
1(
#960000
0*
#965000
b101 %
b101 @
b101 6
b101 P
b101 =
1*
#966000
0(
#970000
0*
#975000
1*
#980000
0*
#985000
1*
#986000
1(
#990000
0*
#995000
b0 %
b0 @
b1 $
b1 A
b10000 6
b1010 P
b1010 =
1*
#996000
0(
#1000000
0*
#1005000
1*
#1010000
0*
#1015000
1*
#1016000
1(
#1020000
0*
#1025000
b101 %
b101 @
b10101 6
b1111 P
b1111 =
1*
#1026000
0(
#1030000
0*
#1035000
1*
#1040000
0*
#1045000
1*
#1046000
1(
#1050000
0*
#1055000
b0 %
b0 @
b10 $
b10 A
b100000 6
b10100 P
b10100 =
1*
#1056000
0(
#1060000
0*
#1065000
1*
#1070000
0*
#1075000
1*
#1076000
1(
#1080000
0*
#1085000
b101 %
b101 @
b100 E
b100101 6
b11001 P
b11001 =
1*
#1086000
0(
#1090000
0*
#1095000
b11 3
b11 P
b11 H
b11 ?
b1110 %
b1110 @
b1110 $
b1110 A
b1110 #
b1110 B
b1110 "
b1110 C
b11 J
b10 N
b100 I
1*
#1100000
0*
#1105000
b1 !
b1 D
1*
#1106000
b10011 0
b100 ]
b100010001001001010100110101000001000101010011100101001101000101 \
#1110000
0*
#1115000
1*
#1116000
1+
#1120000
0*
#1125000
b1 N
1*
#1126000
0+
#1130000
0*
#1135000
1*
#1136000
1+
#1140000
0*
#1145000
b0 E
b0 N
1*
#1146000
0+
#1150000
0*
#1155000
b0 %
b0 @
b0 $
b0 A
b0 #
b0 B
b0 "
b0 C
b0 I
1*
#1160000
0*
#1165000
b0 6
b0 P
b0 !
b0 D
b0 =
1*
#1166000
b0 d
b110 1
b11 ^
b11 _
b0 `
b10100110111010001101111011000110110101100100000010000010011110100110011 a
b10101 0
b0 ]
b10000100110000101100011011010110010000001110100011011110010000001001001010001000100110001000101 \
#1170000
0*
#1175000
1*
#1176000
b10 E
1&
#1180000
0*
#1185000
b101 %
b101 @
b10 $
b10 A
b1111 #
b1111 B
b1111 "
b1111 C
b10 I
b1 N
1*
#1186000
0&
#1190000
0*
#1195000
1*
#1200000
0*
#1205000
1*
#1206000
1+
#1210000
0*
#1215000
b11 E
b0 N
1*
#1216000
0+
#1220000
0*
#1225000
b0 %
b0 @
b0 $
b0 A
b11 I
1*
#1226000
b10 d
#1230000
0*
#1235000
1*
#1236000
1'
#1240000
0*
#1245000
b1 $
b1 A
b10000 6
b1010 P
b1010 =
1*
#1246000
0'
#1250000
0*
#1255000
1*
#1260000
0*
#1265000
1*
#1266000
1'
#1270000
0*
#1275000
b10 $
b10 A
b100000 6
b10100 P
b10100 =
1*
#1276000
0'
#1280000
0*
#1285000
1*
#1290000
0*
#1295000
1*
#1296000
1'
#1300000
0*
#1305000
b11 $
b11 A
b100 E
b110000 6
b11110 P
b11110 =
1*
#1306000
0'
#1310000
0*
#1315000
b10 3
b10 H
b10 ?
b101 5
b10 P
b1110 %
b1110 @
b1110 $
b1110 A
b1110 #
b1110 B
b1110 "
b1110 C
b10 J
b101 >
b10 N
b100 I
1*
#1320000
0*
#1325000
b1 !
b1 D
1*
#1326000
b10110 0
b100 ]
b100010001001001010100110101000001000101010011100101001101000101 \
#1330000
0*
#1335000
1*
#1336000
1+
#1340000
0*
#1345000
b1 N
1*
#1346000
0+
#1350000
0*
#1355000
1*
#1356000
1+
#1360000
0*
#1365000
b101 E
b0 N
1*
#1366000
0+
#1370000
0*
#1375000
b101 %
b101 @
b0 $
b0 A
b1101 #
b1101 B
b1100 "
b1100 C
b10 N
b101 I
1*
#1376000
b101 U
b0 V
b1101 W
b1100 X
b10001000110100101110011011100000110110001100001011110010010000001000011011010000011000000110101 Y
b101 S
b1000011011010000110000101101110011001110110010100100000001111010010000000110101 T
b11001 0
b101 ]
b101001101001000010011110101011101011111010000110100100001000001010011100100011101000101 \
#1380000
0*
#1385000
b0 !
b0 D
1*
#1386000
1+
#1390000
0*
#1395000
b1 N
1*
#1396000
0+
#1400000
0*
#1405000
1*
#1406000
1+
#1410000
0*
#1415000
b0 E
b0 N
1*
#1416000
0+
#1420000
0*
#1425000
b0 %
b0 @
b0 #
b0 B
b0 "
b0 C
b0 I
1*
#1430000
0*
#1435000
b0 5
b0 6
b0 P
b0 >
b0 =
1*
#1436000
b0 d
b111 1
b11010 0
b0 ]
b10000100110000101100011011010110010000001110100011011110010000001001001010001000100110001000101 \
#1440000
0*
#1445000
1*
#1446000
b10 E
1&
#1450000
0*
#1455000
b101 %
b101 @
b10 $
b10 A
b1111 #
b1111 B
b1111 "
b1111 C
b1 N
b10 I
1*
#1456000
0&
#1460000
0*
#1465000
1*
#1470000
0*
#1475000
1*
#1476000
1+
#1480000
0*
#1485000
b11 E
b0 N
1*
#1486000
0+
#1490000
0*
#1495000
b0 %
b0 @
b0 $
b0 A
b11 I
1*
#1496000
b10 d
#1500000
0*
#1505000
1*
#1506000
1'
#1510000
0*
#1515000
b1 $
b1 A
b10000 6
b1010 P
b1010 =
1*
#1516000
0'
#1520000
0*
#1525000
1*
#1530000
0*
#1535000
1*
#1536000
1'
#1540000
0*
#1545000
b10 $
b10 A
b100000 6
b10100 P
b10100 =
1*
#1546000
0'
#1550000
0*
#1555000
1*
#1556000
b11 d
#1560000
0*
#1565000
1*
#1566000
1)
#1570000
0*
#1575000
b101 %
b101 @
b100 $
b100 A
b100 E
b1000101 6
b101101 P
b101101 =
1*
#1576000
0)
#1580000
0*
#1585000
b1 3
b1110 %
b1110 @
b1110 $
b1110 A
b1110 #
b1110 B
b1110 "
b1110 C
b1 H
b1 ?
b100000 5
b1 P
b100 I
b1 J
b10100 >
b10 N
1*
#1590000
0*
#1595000
b1 !
b1 D
1*
#1596000
b11011 0
b100 ]
b100010001001001010100110101000001000101010011100101001101000101 \
#1600000
0*
#1605000
1*
#1606000
1+
#1610000
0*
#1615000
b1 N
1*
#1616000
0+
#1620000
0*
#1625000
1*
#1626000
1+
#1630000
0*
#1635000
b101 E
b0 N
1*
#1636000
0+
#1640000
0*
#1645000
b0 %
b0 @
b10 $
b10 A
b1101 #
b1101 B
b1100 "
b1100 C
b101 I
b10 N
1*
#1646000
b0 U
b10 V
b10001000110100101110011011100000110110001100001011110010010000001000011011010000011001000110000 Y
b10100 S
b100001101101000011000010110111001100111011001010010000000111101001000000011001000110000 T
b11110 0
b101 ]
b101001101001000010011110101011101011111010000110100100001000001010011100100011101000101 \
#1650000
0*
#1655000
b0 !
b0 D
1*
#1656000
1+
#1660000
0*
#1665000
b1 N
1*
#1666000
0+
#1670000
0*
#1675000
1*
#1676000
1+
#1680000
0*
#1685000
b0 E
b0 N
1*
#1686000
0+
#1690000
0*
#1695000
b0 $
b0 A
b0 #
b0 B
b0 "
b0 C
b0 I
1*
#1700000
0*
#1705000
b0 5
b0 6
b0 P
b0 >
b0 =
1*
#1706000
b100 3
b100 P
b100 ?
b0 d
b1 -
b1 2
b1 e
b1000 1
b11111 0
b0 ]
b10000100110000101100011011010110010000001110100011011110010000001001001010001000100110001000101 \
#1710000
0*
#1715000
1*
#1716000
b10 E
1&
#1720000
0*
#1725000
b101 $
b101 A
b1111 #
b1111 B
b1111 "
b1111 C
b1010000 4
b110010 P
b100 H
b10 I
b1 N
b110010 F
b1 G
b1 O
1*
#1726000
0&
#1730000
0*
#1735000
1*
#1740000
0*
#1745000
1*
#1746000
1+
#1750000
0*
#1755000
b11 E
b0 N
1*
#1756000
0+
#1760000
0*
#1765000
b0 $
b0 A
b11 I
1*
#1766000
b11 d
#1770000
0*
#1775000
1*
#1776000
1)
#1780000
0*
#1785000
b101 %
b101 @
b10 $
b10 A
b100101 6
b11001 P
b11001 =
1*
#1786000
0)
#1790000
0*
#1795000
1*
#1796000
b10 d
#1800000
0*
#1805000
1*
#1806000
1'
#1810000
0*
#1815000
b11 $
b11 A
b110101 6
b100011 P
b100011 =
1*
#1816000
0'
#1820000
0*
#1825000
1*
#1830000
0*
#1835000
1*
#1836000
1'
#1840000
0*
#1845000
b100 $
b100 A
b1000101 6
b101101 P
b101101 =
1*
#1846000
0'
#1850000
0*
#1855000
1*
#1856000
b11 d
#1860000
0*
#1865000
1*
#1866000
1)
#1870000
0*
#1875000
b0 %
b0 @
b111 $
b111 A
b100 E
b1110000 6
b1000110 P
b1000110 =
1*
#1876000
0)
#1880000
0*
#1885000
b11 3
b1110 %
b1110 @
b1110 $
b1110 A
b1110 #
b1110 B
b1110 "
b1110 C
b11 H
b11 ?
b100000 5
b11 P
b100 I
b11 K
b10100 >
b10 N
1*
#1890000
0*
#1895000
b10 !
b10 D
1*
#1896000
b100000 0
b100 ]
b100010001001001010100110101000001000101010011100101001101000101 \
#1900000
0*
#1905000
1*
#1906000
1+
#1910000
0*
#1915000
b1 N
1*
#1916000
0+
#1920000
0*
#1925000
1*
#1926000
1+
#1930000
0*
#1935000
b101 E
b0 N
1*
#1936000
0+
#1940000
0*
#1945000
b0 %
b0 @
b10 $
b10 A
b1101 #
b1101 B
b1100 "
b1100 C
b101 I
b10 N
1*
#1946000
b100010 0
b101 ]
b101001101001000010011110101011101011111010000110100100001000001010011100100011101000101 \
#1950000
0*
#1955000
b0 !
b0 D
1*
#1956000
1+
#1960000
0*
#1965000
b1 N
1*
#1966000
0+
#1970000
0*
#1975000
1*
#1976000
1+
#1980000
0*
#1985000
b0 E
b0 N
1*
#1986000
0+
#1990000
0*
#1995000
b0 $
b0 A
b0 #
b0 B
b0 "
b0 C
b0 I
1*
#2000000
0*
#2005000
b0 5
b0 6
b0 P
b0 >
b0 =
1*
#2006000
b100 3
b100 P
b100 ?
b0 d
b10 -
b10 2
b10 e
b1001 1
b100011 0
b0 ]
b10000100110000101100011011010110010000001110100011011110010000001001001010001000100110001000101 \
#2010000
0*
#2015000
1*
#2016000
b10 E
1&
#2020000
0*
#2025000
b101 %
b101 @
b111 $
b111 A
b1111 #
b1111 B
b1111 "
b1111 C
b1110101 4
b1001011 P
b100 H
b10 I
b1 N
b1001011 F
b10 G
b10 O
1*
#2026000
0&
#2030000
0*
#2035000
1*
#2040000
0*
#2045000
1*
#2046000
1+
#2050000
0*
#2055000
b11 E
b0 N
1*
#2056000
0+
#2060000
0*
#2065000
b0 %
b0 @
b0 $
b0 A
b11 I
1*
#2066000
b11 d
b1000110 c
b1000110 b
#2070000
0*
#2075000
1*
#2076000
1)
#2080000
0*
#2085000
b101 %
b101 @
b10 $
b10 A
b100101 6
b11001 P
b11001 =
1*
#2086000
0)
#2090000
0*
#2095000
1*
#2096000
b101101 c
#2100000
0*
#2105000
1*
#2106000
1)
#2110000
0*
#2115000
b0 %
b0 @
b101 $
b101 A
b1010000 6
b110010 P
b110010 =
1*
#2116000
0)
#2120000
0*
#2125000
1*
#2126000
b10 d
b10100 c
#2130000
0*
#2135000
1*
#2136000
1'
#2140000
0*
#2145000
b110 $
b110 A
b1100000 6
b111100 P
b111100 =
1*
#2146000
0'
#2150000
0*
#2155000
1*
#2156000
b1010 c
#2160000
0*
#2165000
1*
#2166000
1'
#2170000
0*
#2175000
b111 $
b111 A
b1110000 6
b1000110 P
b1000110 =
1*
#2176000
0'
#2180000
0*
#2185000
1*
#2186000
b0 c
#2190000
0*
#2195000
1*
#2196000
1'
#2200000
0*
#2205000
b1000 $
b1000 A
b100 E
b10000000 6
b1010000 P
b1010000 =
1*
#2206000
0'
#2210000
0*
#2215000
b11 3
b11 H
b11 ?
b101 5
b11 P
b1110 %
b1110 @
b1110 $
b1110 A
b1110 #
b1110 B
b1110 "
b1110 C
b11 L
b101 >
b10 N
b100 I
1*
#2220000
0*
#2225000
b100 !
b100 D
1*
#2226000
b100100 0
b100 ]
b100010001001001010100110101000001000101010011100101001101000101 \
#2230000
0*
#2235000
1*
#2236000
1+
#2240000
0*
#2245000
b1 N
1*
#2246000
0+
#2250000
0*
#2255000
1*
#2256000
1+
#2260000
0*
#2265000
b101 E
b0 N
1*
#2266000
0+
#2270000
0*
#2275000
b101 %
b101 @
b0 $
b0 A
b1101 #
b1101 B
b1100 "
b1100 C
b10 N
b101 I
1*
#2276000
b101 S
b1000011011010000110000101101110011001110110010100100000001111010010000000110101 T
b100110 0
b101 ]
b101001101001000010011110101011101011111010000110100100001000001010011100100011101000101 \
#2280000
0*
#2285000
b0 !
b0 D
1*
#2286000
1+
#2290000
0*
#2295000
b1 N
1*
#2296000
0+
#2300000
0*
#2305000
1*
#2306000
1+
#2310000
0*
#2315000
b0 E
b0 N
1*
#2316000
0+
#2320000
0*
#2325000
b0 %
b0 @
b0 #
b0 B
b0 "
b0 C
b0 I
1*
#2330000
0*
#2335000
b0 5
b0 6
b0 P
b0 >
b0 =
1*
#2336000
b0 d
b1 -
b1 2
b1 e
b1010 1
b100111 0
b0 ]
b10000100110000101100011011010110010000001110100011011110010000001001001010001000100110001000101 \
#2340000
0*
#2345000
1*
#2346000
b10 E
1&
#2350000
0*
#2355000
b1010000 4
b110010 P
b0 %
b0 @
b101 $
b101 A
b1111 #
b1111 B
b1111 "
b1111 C
b1 N
b110010 F
b1 G
b10 I
b1 O
1*
#2356000
0&
#2360000
0*
#2365000
1*
#2370000
0*
#2375000
1*
#2376000
1+
#2380000
0*
#2385000
b11 E
b0 N
1*
#2386000
0+
#2390000
0*
#2395000
b0 $
b0 A
b11 I
1*
#2396000
b1 d
#2400000
0*
#2405000
1*
#2406000
1(
#2410000
0*
#2415000
b101 %
b101 @
b101 6
b101 P
b101 =
1*
#2416000
0(
#2420000
0*
#2425000
1*
#2426000
b101 U
b0 V
b1111 W
b1111 X
b1000100011010010111001101110000011011000110000101111001001000000011000000110101 Y
b101001 0
b101 Q
b10000010110011001110100011001010111001000100000011011100110100101100011011010110110010101101100001110100010000000110101 R
#2430000
0*
#2435000
1*
#2436000
1(
#2440000
0*
#2445000
b0 %
b0 @
b1 $
b1 A
b10000 6
b1010 P
b1010 =
1*
#2446000
0(
#2450000
0*
#2455000
1*
#2456000
b0 U
b1 V
b1000100011010010111001101110000011011000110000101111001001000000011000100110000 Y
b101011 0
b1010 Q
b1000001011001100111010001100101011100100010000001101110011010010110001101101011011001010110110000111010001000000011000100110000 R
#2460000
0*
#2465000
1*
#2466000
1(
#2470000
0*
#2475000
b101 %
b101 @
b10101 6
b1111 P
b1111 =
1*
#2476000
0(
#2480000
0*
#2485000
1*
#2486000
b11 d
b100011 c
b100011 b
b101 U
b1000100011010010111001101110000011011000110000101111001001000000011000100110101 Y
b101101 0
b1111 Q
b1000001011001100111010001100101011100100010000001101110011010010110001101101011011001010110110000111010001000000011000100110101 R
#2490000
0*
#2495000
1*
#2496000
1)
#2500000
0*
#2505000
b0 %
b0 @
b100 $
b100 A
b1000000 6
b101000 P
b101000 =
1*
#2506000
0)
#2510000
0*
#2515000
1*
#2516000
b10 d
b1010 c
#2520000
0*
#2525000
1*
#2526000
1'
#2530000
0*
#2535000
b101 $
b101 A
b100 E
b1010000 6
b110010 P
b110010 =
1*
#2536000
0'
#2540000
0*
#2545000
b10 3
b10 P
b1110 %
b1110 @
b1110 $
b1110 A
b1110 #
b1110 B
b1110 "
b1110 C
b10 H
b10 ?
b100 I
b10 K
b10 N
1*
#2546000
b0 c
#2550000
0*
#2555000
b10 !
b10 D
1*
#2560000
0*
#2565000
1*
#2566000
1+
#2570000
0*
#2575000
b1 N
1*
#2576000
0+
#2580000
0*
#2585000
1*
#2586000
1+
#2590000
0*
#2595000
b0 E
b0 N
1*
#2596000
0+
#2600000
0*
#2605000
b0 %
b0 @
b0 $
b0 A
b0 #
b0 B
b0 "
b0 C
b0 I
1*
#2610000
0*
#2615000
b0 6
b0 P
b0 !
b0 D
b0 =
1*
#2616000
b11 3
b11 P
b11 ?
b0 d
b10 -
b10 2
b10 e
b1011 1
#2620000
0*
#2625000
1*
#2626000
b10 E
1&
#2630000
0*
#2635000
b101 %
b101 @
b1110101 4
b1001011 P
b11 H
b111 $
b111 A
b1111 #
b1111 B
b1111 "
b1111 C
b1 N
b1001011 F
b10 G
b10 I
b10 O
1*
#2636000
0&
#2640000
0*
#2645000
1*
#2650000
0*
#2655000
1*
#2656000
1+
#2660000
0*
#2665000
b11 E
b0 N
1*
#2666000
0+
#2670000
0*
